01_test/simulation.log
-------------- Test Case 1 --------------
Test case 1: Reset the FIFO
FIFO reset, pt_rd:  0, pt_wr:  0
FIFO empty: 1, FIFO full: 0
FIFO data: 29
=> TestCase1: PASS
-------------- Test Case 2 --------------
Time =                   65, o_full = 0, ptr_wr =  0, ptr_rd =  0
Time =                   85, o_full = 0, ptr_wr =  2, ptr_rd =  0
Time =                  105, o_full = 0, ptr_wr =  4, ptr_rd =  0
Time =                  125, o_full = 0, ptr_wr =  6, ptr_rd =  0
Time =                  145, o_full = 0, ptr_wr =  8, ptr_rd =  0
Time =                  165, o_full = 0, ptr_wr = 10, ptr_rd =  0
Time =                  185, o_full = 0, ptr_wr = 12, ptr_rd =  0
Time =                  205, o_full = 0, ptr_wr = 14, ptr_rd =  0
Time =                  225, o_full = 1, ptr_wr = 16, ptr_rd =  0
Time =                  245, o_full = 1, ptr_wr = 16, ptr_rd =  0
Time =                  265, o_full = 1, ptr_wr = 16, ptr_rd =  0
Time =                  285, o_full = 1, ptr_wr = 16, ptr_rd =  0
Time =                  305, o_full = 1, ptr_wr = 16, ptr_rd =  0
Time =                  325, o_full = 1, ptr_wr = 16, ptr_rd =  0
Time =                  345, o_full = 1, ptr_wr = 16, ptr_rd =  0
Time =                  365, o_full = 1, ptr_wr = 16, ptr_rd =  0
Time =                  385, o_full = 1, ptr_wr = 16, ptr_rd =  0
Test case 2: Write data until full
=> TestCase2: PASS
-------------- Test Case 3 --------------
Time =                  415, o_empty = 0, ptr_wr = 16, ptr_rd =  1
Time =                  435, o_empty = 0, ptr_wr = 16, ptr_rd =  3
Time =                  455, o_empty = 0, ptr_wr = 16, ptr_rd =  5
Time =                  475, o_empty = 0, ptr_wr = 16, ptr_rd =  7
Time =                  495, o_empty = 0, ptr_wr = 16, ptr_rd =  9
Time =                  515, o_empty = 0, ptr_wr = 16, ptr_rd = 11
Time =                  535, o_empty = 0, ptr_wr = 16, ptr_rd = 13
Time =                  555, o_empty = 0, ptr_wr = 16, ptr_rd = 15
Time =                  575, o_empty = 1, ptr_wr = 16, ptr_rd = 16
Time =                  595, o_empty = 1, ptr_wr = 16, ptr_rd = 16
Time =                  615, o_empty = 1, ptr_wr = 16, ptr_rd = 16
Time =                  635, o_empty = 1, ptr_wr = 16, ptr_rd = 16
Time =                  655, o_empty = 1, ptr_wr = 16, ptr_rd = 16
Time =                  675, o_empty = 1, ptr_wr = 16, ptr_rd = 16
Time =                  695, o_empty = 1, ptr_wr = 16, ptr_rd = 16
Time =                  715, o_empty = 1, ptr_wr = 16, ptr_rd = 16
Test case 3: Read data until empty
=> TestCase3: PASS
-------------- Test Case 4 --------------
FIFO data: i_data =  29, o_data =  18
FIFO data: i_data =  30, o_data =  29
FIFO data: i_data =  31, o_data =  29
FIFO data: i_data =  32, o_data =  30
FIFO data: i_data =  33, o_data =  31
-------------- Test Case 5 --------------
Input data
Time=                 875, i_wr_en=1, i_rd_en=0, i_data = 56, o_full=0
Time=                 885, i_wr_en=1, i_rd_en=0, i_data = fd, o_full=0
Time=                 895, i_wr_en=1, i_rd_en=0, i_data = f4, o_full=0
Time=                 905, i_wr_en=1, i_rd_en=0, i_data = 3b, o_full=0
Time=                 915, i_wr_en=1, i_rd_en=0, i_data = 58, o_full=0
Time=                 925, i_wr_en=1, i_rd_en=0, i_data = b2, o_full=0
Time=                 935, i_wr_en=1, i_rd_en=0, i_data = 5c, o_full=0
Time=                 945, i_wr_en=1, i_rd_en=0, i_data = 1e, o_full=0
Time=                 955, i_wr_en=1, i_rd_en=0, i_data = 9e, o_full=0
Time=                 965, i_wr_en=1, i_rd_en=0, i_data = 9e, o_full=0
Time=                 975, i_wr_en=1, i_rd_en=0, i_data = ee, o_full=0
Time=                 985, i_wr_en=1, i_rd_en=0, i_data = 10, o_full=0
Time=                 995, i_wr_en=1, i_rd_en=0, i_data = 76, o_full=0
Time=                1005, i_wr_en=1, i_rd_en=0, i_data = 63, o_full=0
Time=                1015, i_wr_en=1, i_rd_en=0, i_data = c0, o_full=1
Output data
Time=                1035, i_wr_en=0, i_rd_en=1, o_data = c0, o_empty=0
Time=                1045, i_wr_en=0, i_rd_en=1, o_data = 21, o_empty=0
Time=                1055, i_wr_en=0, i_rd_en=1, o_data = 56, o_empty=0
Time=                1065, i_wr_en=0, i_rd_en=1, o_data = fd, o_empty=0
Time=                1075, i_wr_en=0, i_rd_en=1, o_data = f4, o_empty=0
Time=                1085, i_wr_en=0, i_rd_en=1, o_data = 3b, o_empty=0
Time=                1095, i_wr_en=0, i_rd_en=1, o_data = 58, o_empty=0
Time=                1105, i_wr_en=0, i_rd_en=1, o_data = b2, o_empty=0
Time=                1115, i_wr_en=0, i_rd_en=1, o_data = 5c, o_empty=0
Time=                1125, i_wr_en=0, i_rd_en=1, o_data = 1e, o_empty=0
Time=                1135, i_wr_en=0, i_rd_en=1, o_data = 9e, o_empty=0
Time=                1145, i_wr_en=0, i_rd_en=1, o_data = 9e, o_empty=0
Time=                1155, i_wr_en=0, i_rd_en=1, o_data = ee, o_empty=0
Time=                1165, i_wr_en=0, i_rd_en=1, o_data = 10, o_empty=0
Time=                1175, i_wr_en=0, i_rd_en=1, o_data = 76, o_empty=0
Time=                1185, i_wr_en=0, i_rd_en=1, o_data = 63, o_empty=1
End of simulation
- tb_fifo.v:178: Verilog $finish
